%YAML 1.1
%TAG !u! tag:unity3d.com,2011:
--- !u!114 &11400000
MonoBehaviour:
  m_ObjectHideFlags: 0
  m_CorrespondingSourceObject: {fileID: 0}
  m_PrefabInternal: {fileID: 0}
  m_GameObject: {fileID: 0}
  m_Enabled: 1
  m_EditorHideFlags: 0
  m_Script: {fileID: 11500000, guid: 946e90be4eadba247990025188babb7d, type: 3}
  m_Name: Soup_Green_Recipe
  m_EditorClassIdentifier: 
  ingredientAmounts:
  - ingredient: {fileID: 11400000, guid: 2967dd7260ee51a43a61c49f3e319ddb, type: 2}
    amount: 2
  - ingredient: {fileID: 11400000, guid: 3164385949cf66447903a4f29168e0d0, type: 2}
    amount: 1
  ingredientsSorted:
  - {fileID: 11400000, guid: 2967dd7260ee51a43a61c49f3e319ddb, type: 2}
  - {fileID: 11400000, guid: 2967dd7260ee51a43a61c49f3e319ddb, type: 2}
  - {fileID: 11400000, guid: 3164385949cf66447903a4f29168e0d0, type: 2}
  recipeResult:
    ingredient: {fileID: 11400000, guid: 9ace0874b5c30114ba6f65251c09cd14, type: 2}
    color: {r: 0, g: 1, b: 0, a: 1}
    smokeEmissionColor: {r: 0, g: 1, b: 0, a: 1}
    brewDuration: 3
    timeBonusIfPerfect: 0
