%YAML 1.1
%TAG !u! tag:unity3d.com,2011:
--- !u!114 &11400000
MonoBehaviour:
  m_ObjectHideFlags: 0
  m_PrefabParentObject: {fileID: 0}
  m_PrefabInternal: {fileID: 0}
  m_GameObject: {fileID: 0}
  m_Enabled: 1
  m_EditorHideFlags: 0
  m_Script: {fileID: 11500000, guid: 468eb59bf531403dbe7fc8d760e929be, type: 3}
  m_Name: GameSettings_Marcus
  m_EditorClassIdentifier: 
  launchSceneName: Playground_Marcus_Launcher
  gameSceneName: Playground_Marcus
  playerColorMaterials: {fileID: 11400000, guid: 867afaaa94dbff94bafd48c97505a6bb,
    type: 2}
