%YAML 1.1
%TAG !u! tag:unity3d.com,2011:
--- !u!114 &11400000
MonoBehaviour:
  m_ObjectHideFlags: 0
  m_PrefabParentObject: {fileID: 0}
  m_PrefabInternal: {fileID: 0}
  m_GameObject: {fileID: 0}
  m_Enabled: 1
  m_EditorHideFlags: 0
  m_Script: {fileID: 11500000, guid: 9fb1f2d28e81455cb7bd028d4fd93e72, type: 3}
  m_Name: PlayerColorMaterials
  m_EditorClassIdentifier: 
  materials:
  - {fileID: 2100000, guid: 4ba7f1678b3ba814abdeeb937193e9b0, type: 2}
  - {fileID: 2100000, guid: 8ae4386dbc5bdd64c9a561b35c2bf9dd, type: 2}
  - {fileID: 2100000, guid: 437b4888b91cd5b4795ae07024068a1b, type: 2}
  - {fileID: 2100000, guid: 79c46bacd3eabce45943124316538c7c, type: 2}
