%YAML 1.1
%TAG !u! tag:unity3d.com,2011:
--- !u!114 &11400000
MonoBehaviour:
  m_ObjectHideFlags: 0
  m_CorrespondingSourceObject: {fileID: 0}
  m_PrefabInternal: {fileID: 0}
  m_GameObject: {fileID: 0}
  m_Enabled: 1
  m_EditorHideFlags: 0
  m_Script: {fileID: 11500000, guid: 8cd74a5e0c6a499fac106cb35bdd4b2f, type: 3}
  m_Name: Plant_Fire_Ingredient
  m_EditorClassIdentifier: 
  id: 3
  image: {fileID: 21300000, guid: 3a22045e2cf4b6144bc15ef6b2edfc15, type: 3}
