%YAML 1.1
%TAG !u! tag:unity3d.com,2011:
--- !u!21 &2100000
Material:
  serializedVersion: 6
  m_ObjectHideFlags: 0
  m_CorrespondingSourceObject: {fileID: 0}
  m_PrefabInternal: {fileID: 0}
  m_Name: plant_2.2
  m_Shader: {fileID: 4800000, guid: ab90f8d0948d0614187607e97da25e23, type: 3}
  m_ShaderKeywords: _EMISSION
  m_LightmapFlags: 2
  m_EnableInstancingVariants: 0
  m_DoubleSidedGI: 0
  m_CustomRenderQueue: -1
  stringTagMap: {}
  disabledShaderPasses: []
  m_SavedProperties:
    serializedVersion: 3
    m_TexEnvs:
    - Texture2D_238C894E:
        m_Texture: {fileID: 0}
        m_Scale: {x: 1, y: 1}
        m_Offset: {x: 0, y: 0}
    - Texture2D_6C4D01BC:
        m_Texture: {fileID: 0}
        m_Scale: {x: 1, y: 1}
        m_Offset: {x: 0, y: 0}
    - Texture2D_E47E2931:
        m_Texture: {fileID: 0}
        m_Scale: {x: 1, y: 1}
        m_Offset: {x: 0, y: 0}
    - Texture_58E56FD6:
        m_Texture: {fileID: 0}
        m_Scale: {x: 1, y: 1}
        m_Offset: {x: 0, y: 0}
    - Texture_7DE7D88B:
        m_Texture: {fileID: 0}
        m_Scale: {x: 1, y: 1}
        m_Offset: {x: 0, y: 0}
    - _AlphaTex:
        m_Texture: {fileID: 0}
        m_Scale: {x: 1, y: 1}
        m_Offset: {x: 0, y: 0}
    - _BumpMap:
        m_Texture: {fileID: 0}
        m_Scale: {x: 1, y: 1}
        m_Offset: {x: 0, y: 0}
    - _DetailAlbedoMap:
        m_Texture: {fileID: 0}
        m_Scale: {x: 1, y: 1}
        m_Offset: {x: 0, y: 0}
    - _DetailMask:
        m_Texture: {fileID: 0}
        m_Scale: {x: 1, y: 1}
        m_Offset: {x: 0, y: 0}
    - _DetailNormalMap:
        m_Texture: {fileID: 0}
        m_Scale: {x: 1, y: 1}
        m_Offset: {x: 0, y: 0}
    - _EmissionMap:
        m_Texture: {fileID: 0}
        m_Scale: {x: 1, y: 1}
        m_Offset: {x: 0, y: 0}
    - _FaceTex:
        m_Texture: {fileID: 0}
        m_Scale: {x: 1, y: 1}
        m_Offset: {x: 0, y: 0}
    - _MainTex:
        m_Texture: {fileID: 0}
        m_Scale: {x: 1, y: 1}
        m_Offset: {x: 0, y: 0}
    - _MetallicGlossMap:
        m_Texture: {fileID: 0}
        m_Scale: {x: 1, y: 1}
        m_Offset: {x: 0, y: 0}
    - _OcclusionMap:
        m_Texture: {fileID: 0}
        m_Scale: {x: 1, y: 1}
        m_Offset: {x: 0, y: 0}
    - _ParallaxMap:
        m_Texture: {fileID: 0}
        m_Scale: {x: 1, y: 1}
        m_Offset: {x: 0, y: 0}
    - _SpecGlossMap:
        m_Texture: {fileID: 0}
        m_Scale: {x: 1, y: 1}
        m_Offset: {x: 0, y: 0}
    m_Floats:
    - Boolean_31BF66AA: 0
    - PixelSnap: 0
    - Vector1_30AE36EF: 0
    - Vector1_35E8C41C: 0.5
    - Vector1_6B8E4E45: 3
    - Vector1_FDC2F343: 0.396
    - Vector1_FE1C4E06: 0
    - _AlphaClip: 0
    - _Blend: 0
    - _BottomColorPos: 1
    - _BumpScale: 1
    - _ColorMask: 15
    - _Cull: 2
    - _Cutoff: 0.5
    - _DetailNormalMapScale: 1
    - _DstBlend: 0
    - _EnableExternalAlpha: 0
    - _Float1: 0
    - _Float3: 0
    - _GlossMapScale: 1
    - _Glossiness: 0
    - _GlossinessSource: 1
    - _GlossyReflections: 1
    - _Highlighted: 0
    - _MaskSoftnessX: 0
    - _MaskSoftnessY: 0
    - _Metallic: 0
    - _Mode: 0
    - _OcclusionStrength: 1
    - _Parallax: 0.02
    - _Shininess: 0.5
    - _Smoothness: 0.2
    - _SmoothnessTextureChannel: 0
    - _SpecSource: 1
    - _SpecularHighlights: 1
    - _SrcBlend: 1
    - _Stencil: 0
    - _StencilComp: 8
    - _StencilOp: 0
    - _StencilReadMask: 255
    - _StencilWriteMask: 255
    - _Surface: 0
    - _TopColorPos: 8
    - _UVSec: 0
    - _VertexOffsetX: 0
    - _VertexOffsetY: 0
    - _WindAmplitude: 2
    - _WindSpeed: 100
    - _WorkflowMode: 1
    - _ZWrite: 1
    - __dirty: 0
    m_Colors:
    - Color_1FFD9E95: {r: 0.03773582, g: 0.03211105, b: 0.023673886, a: 1}
    - Color_558DFA95: {r: 0.08650763, g: 0.22641504, b: 0.10977551, a: 0}
    - Color_7159A504: {r: 0.31216627, g: 0.57254905, b: 0.32038647, a: 1}
    - Color_DD0E0962: {r: 0.20719118, g: 0.4528302, b: 0.3426076, a: 1}
    - Color_F9C4F14F: {r: 0.5444999, g: 0.7169812, b: 0.66597074, a: 0}
    - Color_FA3FF41D: {r: 0.5471698, g: 0.5387679, b: 0.41553932, a: 1}
    - _BottomColor: {r: 0, g: 0.53676474, b: 0.07033476, a: 1}
    - _ClipRect: {r: -32767, g: -32767, b: 32767, a: 32767}
    - _Color: {r: 0.14373443, g: 0.3207547, b: 0.24460292, a: 1}
    - _EmissionColor: {r: 0.16037738, g: 0.13611704, b: 0.100614116, a: 1}
    - _FaceColor: {r: 1, g: 1, b: 1, a: 1}
    - _Flip: {r: 1, g: 1, b: 1, a: 1}
    - _RendererColor: {r: 1, g: 1, b: 1, a: 1}
    - _SpecColor: {r: 0.5, g: 0.5, b: 0.5, a: 1}
    - _TopColor: {r: 0.31417936, g: 0.7205882, b: 0.28081742, a: 1}
    - _Vector1: {r: 0, g: 0, b: 0, a: 0}
    - _WindCycles: {r: 0, g: 0, b: 0.5, a: 0}
    - _WindMagnitude: {r: 0, g: 0, b: 0.1, a: 0}
