%YAML 1.1
%TAG !u! tag:unity3d.com,2011:
--- !u!21 &2100000
Material:
  serializedVersion: 6
  m_ObjectHideFlags: 0
  m_PrefabParentObject: {fileID: 0}
  m_PrefabInternal: {fileID: 0}
  m_Name: Tree_1
  m_Shader: {fileID: 4800000, guid: 8d2bb70cbf9db8d4da26e15b26e74248, type: 3}
  m_ShaderKeywords: 
  m_LightmapFlags: 4
  m_EnableInstancingVariants: 0
  m_DoubleSidedGI: 0
  m_CustomRenderQueue: -1
  stringTagMap: {}
  disabledShaderPasses: []
  m_SavedProperties:
    serializedVersion: 3
    m_TexEnvs:
    - _BumpMap:
        m_Texture: {fileID: 0}
        m_Scale: {x: 1, y: 1}
        m_Offset: {x: 0, y: 0}
    - _DetailAlbedoMap:
        m_Texture: {fileID: 0}
        m_Scale: {x: 1, y: 1}
        m_Offset: {x: 0, y: 0}
    - _DetailMask:
        m_Texture: {fileID: 0}
        m_Scale: {x: 1, y: 1}
        m_Offset: {x: 0, y: 0}
    - _DetailNormalMap:
        m_Texture: {fileID: 0}
        m_Scale: {x: 1, y: 1}
        m_Offset: {x: 0, y: 0}
    - _EmissionMap:
        m_Texture: {fileID: 0}
        m_Scale: {x: 1, y: 1}
        m_Offset: {x: 0, y: 0}
    - _MainTex:
        m_Texture: {fileID: 0}
        m_Scale: {x: 1, y: 1}
        m_Offset: {x: 0, y: 0}
    - _MetallicGlossMap:
        m_Texture: {fileID: 0}
        m_Scale: {x: 1, y: 1}
        m_Offset: {x: 0, y: 0}
    - _OcclusionMap:
        m_Texture: {fileID: 0}
        m_Scale: {x: 1, y: 1}
        m_Offset: {x: 0, y: 0}
    - _ParallaxMap:
        m_Texture: {fileID: 0}
        m_Scale: {x: 1, y: 1}
        m_Offset: {x: 0, y: 0}
    - _SpecGlossMap:
        m_Texture: {fileID: 0}
        m_Scale: {x: 1, y: 1}
        m_Offset: {x: 0, y: 0}
    m_Floats:
    - _AlphaClip: 0
    - _Blend: 0
    - _BottomColorPos: 1
    - _BumpScale: 1
    - _Cull: 2
    - _Cutoff: 0.208
    - _DetailNormalMapScale: 1
    - _DstBlend: 0
    - _Float1: 0
    - _Float3: 0
    - _GlossMapScale: 0
    - _Glossiness: 0
    - _GlossinessSource: 0
    - _GlossyReflections: 1
    - _Metallic: 0
    - _Mode: 0
    - _OcclusionStrength: 1
    - _Parallax: 0.02
    - _Shininess: 0.5
    - _Smoothness: 0.2
    - _SmoothnessTextureChannel: 0
    - _SpecSource: 1
    - _SpecularHighlights: 1
    - _SrcBlend: 1
    - _Surface: 0
    - _TopColorPos: 8
    - _UVSec: 0
    - _WindAmplitude: 2
    - _WindSpeed: 100
    - _WorkflowMode: 0
    - _ZWrite: 1
    - __dirty: 0
    m_Colors:
    - _BottomColor: {r: 0, g: 0.53676474, b: 0.07033476, a: 1}
    - _Color: {r: 0.5471698, g: 0.2297509, b: 0.12130651, a: 1}
    - _EmissionColor: {r: 0, g: 0, b: 0, a: 1}
    - _SpecColor: {r: 0.2, g: 0.2, b: 0.2, a: 1}
    - _TopColor: {r: 0.31417936, g: 0.7205882, b: 0.28081742, a: 1}
    - _Vector1: {r: 0, g: 0, b: 0, a: 0}
    - _WindCycles: {r: 0, g: 0, b: 0.5, a: 0}
    - _WindMagnitude: {r: 0, g: 0, b: 0.1, a: 0}
