%YAML 1.1
%TAG !u! tag:unity3d.com,2011:
--- !u!21 &2100000
Material:
  serializedVersion: 6
  m_ObjectHideFlags: 0
  m_CorrespondingSourceObject: {fileID: 0}
  m_PrefabInternal: {fileID: 0}
  m_Name: Tree_Trunk
  m_Shader: {fileID: 4800000, guid: 933532a4fcc9baf4fa0491de14d08ed7, type: 3}
  m_ShaderKeywords: 
  m_LightmapFlags: 4
  m_EnableInstancingVariants: 0
  m_DoubleSidedGI: 0
  m_CustomRenderQueue: -1
  stringTagMap: {}
  disabledShaderPasses: []
  m_SavedProperties:
    serializedVersion: 3
    m_TexEnvs:
    - Texture_58E56FD6:
        m_Texture: {fileID: 0}
        m_Scale: {x: 1, y: 1}
        m_Offset: {x: 0, y: 0}
    - Texture_7DE7D88B:
        m_Texture: {fileID: 0}
        m_Scale: {x: 1, y: 1}
        m_Offset: {x: 0, y: 0}
    - _BumpMap:
        m_Texture: {fileID: 0}
        m_Scale: {x: 1, y: 1}
        m_Offset: {x: 0, y: 0}
    - _DetailAlbedoMap:
        m_Texture: {fileID: 0}
        m_Scale: {x: 1, y: 1}
        m_Offset: {x: 0, y: 0}
    - _DetailMask:
        m_Texture: {fileID: 0}
        m_Scale: {x: 1, y: 1}
        m_Offset: {x: 0, y: 0}
    - _DetailNormalMap:
        m_Texture: {fileID: 0}
        m_Scale: {x: 1, y: 1}
        m_Offset: {x: 0, y: 0}
    - _EmissionMap:
        m_Texture: {fileID: 0}
        m_Scale: {x: 1, y: 1}
        m_Offset: {x: 0, y: 0}
    - _MainTex:
        m_Texture: {fileID: 0}
        m_Scale: {x: 1, y: 1}
        m_Offset: {x: 0, y: 0}
    - _MetallicGlossMap:
        m_Texture: {fileID: 0}
        m_Scale: {x: 1, y: 1}
        m_Offset: {x: 0, y: 0}
    - _OcclusionMap:
        m_Texture: {fileID: 0}
        m_Scale: {x: 1, y: 1}
        m_Offset: {x: 0, y: 0}
    - _ParallaxMap:
        m_Texture: {fileID: 0}
        m_Scale: {x: 1, y: 1}
        m_Offset: {x: 0, y: 0}
    - _SpecGlossMap:
        m_Texture: {fileID: 2800000, guid: 1dc814cb85d4a0841aee0ef93bc8051d, type: 3}
        m_Scale: {x: 1, y: 1}
        m_Offset: {x: 0, y: 0}
    m_Floats:
    - Boolean_31BF66AA: 0
    - Vector1_30AE36EF: 0
    - Vector1_35E8C41C: 0.5
    - _AlphaClip: 0
    - _Blend: 0
    - _Bottom: 0
    - _BottomColorPos: 0
    - _BumpScale: 1
    - _Cull: 2
    - _Cutoff: 0.5
    - _DetailNormalMapScale: 1
    - _DstBlend: 0
    - _Float0: 0.18
    - _Float1: 1
    - _Float3: 0.2
    - _GlossMapScale: 1
    - _Glossiness: 0.171
    - _GlossinessSource: 0
    - _GlossyReflections: 1
    - _Metallic: 0
    - _Mode: 0
    - _MotionSpeed: 10
    - _ObjectHeight: 20
    - _OcclusionStrength: 1
    - _Parallax: 0.02
    - _Shininess: 1
    - _Smoothness: 0.2
    - _SmoothnessTextureChannel: 0
    - _SpecSource: 0
    - _SpecularHighlights: 1
    - _SrcBlend: 1
    - _Surface: 0
    - _Top: 10
    - _TopColorPos: 10
    - _UVSec: 0
    - _WaveDirectionZX: 0
    - _WaveHeight: 0.5
    - _WaveMagnitude: 1
    - _WaveSpeed: 400
    - _WindAmplitude: 2
    - _WindSpeed: 100
    - _WorkflowMode: 1
    - _ZWrite: 1
    - __dirty: 0
    m_Colors:
    - Color_558DFA95: {r: 0, g: 0, b: 0, a: 0}
    - Color_7159A504: {r: 0.18431373, g: 0.17123528, b: 0.1450694, a: 0}
    - Color_FA3FF41D: {r: 0.5943396, g: 0.5836683, b: 0.42893377, a: 1}
    - _BottomColor: {r: 0.43382335, g: 0.2423427, b: 0, a: 1}
    - _Color: {r: 0.26415092, g: 0.24121328, b: 0.23050906, a: 1}
    - _Color1: {r: 1, g: 0, b: 0, a: 1}
    - _EmissionColor: {r: 0, g: 0, b: 0, a: 1}
    - _SpecColor: {r: 1, g: 1, b: 1, a: 1}
    - _TopColor: {r: 0.8088235, g: 0.70054287, b: 0.41630623, a: 1}
    - _Vector0: {r: 0, g: 0, b: 0.2, a: 0}
    - _Vector1: {r: 0, g: 0, b: 0, a: 0}
    - _WindCycles: {r: 0, g: 0, b: 0.5, a: 0}
    - _WindDirection: {r: 0, g: 0, b: 0, a: 0}
    - _WindDirectionandMagnitude: {r: 0, g: 0, b: 0, a: 0}
    - _WindMagnitude: {r: 0, g: 0, b: 0.1, a: 0}
