%YAML 1.1
%TAG !u! tag:unity3d.com,2011:
--- !u!114 &11400000
MonoBehaviour:
  m_ObjectHideFlags: 0
  m_CorrespondingSourceObject: {fileID: 0}
  m_PrefabInternal: {fileID: 0}
  m_GameObject: {fileID: 0}
  m_Enabled: 1
  m_EditorHideFlags: 0
  m_Script: {fileID: 11500000, guid: 5eeb23a02e664051b44bfbcca46e19f8, type: 3}
  m_Name: RootForever
  m_EditorClassIdentifier: 
  duration: 999
  isUnique: 1
  onStartFxPrefab: {fileID: 0}
  onEndFxPrefab: {fileID: 0}
