%YAML 1.1
%TAG !u! tag:unity3d.com,2011:
--- !u!114 &11400000
MonoBehaviour:
  m_ObjectHideFlags: 0
  m_CorrespondingSourceObject: {fileID: 0}
  m_PrefabInternal: {fileID: 0}
  m_GameObject: {fileID: 0}
  m_Enabled: 1
  m_EditorHideFlags: 0
  m_Script: {fileID: 11500000, guid: f6294672169248518d6fa303312a0031, type: 3}
  m_Name: SpeedUp
  m_EditorClassIdentifier: 
  duration: 3
  isUnique: 0
  onStartFxPrefab: {fileID: 0}
  onEndFxPrefab: {fileID: 0}
  speedMultiplier: 1.5
