%YAML 1.1
%TAG !u! tag:unity3d.com,2011:
--- !u!114 &11400000
MonoBehaviour:
  m_ObjectHideFlags: 0
  m_CorrespondingSourceObject: {fileID: 0}
  m_PrefabInternal: {fileID: 0}
  m_GameObject: {fileID: 0}
  m_Enabled: 1
  m_EditorHideFlags: 0
  m_Script: {fileID: 11500000, guid: 08b1db4a01d943eeba5dd51b8fe5a352, type: 3}
  m_Name: Scale(1.1, 0.4, 1.1) in 0.1
  m_EditorClassIdentifier: 
  duration: 0.1
  scale: {x: 1.1, y: 0.4, z: 1.1}
  ease: 24
