%YAML 1.1
%TAG !u! tag:unity3d.com,2011:
--- !u!1045 &1
EditorBuildSettings:
  m_ObjectHideFlags: 0
  serializedVersion: 2
  m_Scenes:
  - enabled: 1
    path: Assets/Scenes/Launcher.unity
    guid: 1f352bb7861d0964a9b20f826b167914
  - enabled: 1
    path: Assets/Scenes/Main.unity
    guid: 48502bd43862d45468a0b585edf4a5ae
  - enabled: 1
    path: Assets/Scenes/GameOver.unity
    guid: 99d490f75280260428c33a214201df08
  m_configObjects: {}
