%YAML 1.1
%TAG !u! tag:unity3d.com,2011:
--- !u!114 &11400000
MonoBehaviour:
  m_ObjectHideFlags: 0
  m_CorrespondingSourceObject: {fileID: 0}
  m_PrefabInternal: {fileID: 0}
  m_GameObject: {fileID: 0}
  m_Enabled: 1
  m_EditorHideFlags: 0
  m_Script: {fileID: 11500000, guid: 08b9f672869d56d48980ac4aab5b9d6d, type: 3}
  m_Name: Stage_2
  m_EditorClassIdentifier: 
  ingredientAmounts:
  - ingredient: {fileID: 11400000, guid: 9ace0874b5c30114ba6f65251c09cd14, type: 2}
    amount: 1
  result:
    albedo: {r: 0.03951584, g: 0.19738561, b: 0.2264151, a: 1}
    emissionColor: {r: 0.16078432, g: 0.39607844, b: 0.2529126, a: 0}
    smoothness: 0.6
    lightColor: {r: 0.2784314, g: 0.92156863, b: 1, a: 0}
    lightIntensity: 250
